-------------------------------------------------------------------------------
Test set: SimpleTest
-------------------------------------------------------------------------------
Tests run: 1, Failures: 0, Errors: 0, Skipped: 0, Time elapsed: 17.282 sec
